Day1_2X1mux/Test/sim.vcd
$date
	Sat Jun 18 18:44:17 2022
$end
$version
	Icarus Verilog
$end
$timescale
	1ps
$end
$scope module sim $end
$var wire 1 ! a $end
$var wire 1 " b $end
$var wire 1 # sel $end
$var wire 1 $ c $end
$scope module dut $end
$var wire 1 ! a $end
$var wire 1 " b $end
$var wire 1 # sel $end
$var wire 1 $ c $end
$scope module mux2X1_inst $end
$var wire 1 ! a $end
$var wire 1 " b $end
$var wire 1 # sel $end
$var wire 1 $ c $end
$scope module _0_ $end
$var wire 1 ! A0 $end
$var wire 1 " A1 $end
$var wire 1 # S $end
$var wire 1 % VGND $end
$var wire 1 & VNB $end
$var wire 1 ' VPB $end
$var wire 1 ( VPWR $end
$var wire 1 $ X $end
$scope module base $end
$var wire 1 ! A0 $end
$var wire 1 " A1 $end
$var wire 1 # S $end
$var wire 1 ) VGND $end
$var wire 1 * VNB $end
$var wire 1 + VPB $end
$var wire 1 , VPWR $end
$var wire 1 $ X $end
$var wire 1 - mux_2to10_out_X $end
$upscope $end
$upscope $end
$upscope $end
$upscope $end
$upscope $end
$enddefinitions $end
#0
$dumpvars
1-
1,
1+
0*
0)
1(
1'
0&
0%
1$
0#
0"
1!
$end
#10000
0$
0-
0!
1#
#20000
1!
#30000
1$
1-
0!
1"
#40000
1!
0"
0#
#50000
0$
0-
0!
#60000
1!
1#
#70000
0!
0#
#80000
1$
1-
1!
1"
#90000
1#
#100000
0$
0-
0!
0"
#110000
1$
1-
1!
0#
#120000
0$
0-
1#
#130000
1$
1-
1"
#140000
0$
0-
0"
#150000
0!
1"
0#
#180000
1!
0"
1#
#200000
1$
1-
0#
#210000
1"
#240000
0$
0-
0"
1#
#250000
1$
1-
0!
1"
#260000
0$
0-
1!
0"
#270000
0!
#280000
1$
1-
1"
#290000
1!
0"
0#
#300000
0$
0-
0!
#310000
1$
1-
1!
1"
#330000
0!
1#
#340000
1!
0#
#350000
0"
#360000
0$
0-
0!
1"
#370000
1$
1-
1!
0"
#380000
0$
0-
0!
1#
#390000
1$
1-
1"
#400000
0$
0-
0"
#410000
1$
1-
1!
1"
0#
#420000
0$
0-
0!
#430000
1$
1-
1!
1#
#450000
0$
0-
0!
0"
0#
#460000
1$
1-
1"
1#
#470000
1!
0#
#480000
0"
#490000
0$
0-
0!
1"
#500000
0"
1#
#510000
0#
#530000
1"
#540000
1$
1-
1!
1#
#550000
0$
0-
0!
0"
#560000
1$
1-
1!
0#
#570000
0!
1"
1#
#580000
0$
0-
0#
#590000
1!
0"
1#
#600000
1$
1-
0!
1"
#620000
0$
0-
0"
0#
#630000
1"
#650000
1!
0"
1#
#660000
0!
#680000
1"
0#
#690000
1$
1-
1!
#700000
0$
0-
0"
1#
#710000
1$
1-
1"
0#
#720000
0$
0-
0!
0"
#730000
1$
1-
1!
#740000
0$
0-
0!
1"
#750000
1$
1-
1!
0"
#760000
0$
0-
0!
1"
#770000
1$
1-
1#
#780000
1!
0"
0#
#790000
0$
0-
0!
1#
#800000
1"
0#
#810000
1!
0"
1#
#820000
1$
1-
0#
#830000
0$
0-
0!
1#
#840000
1!
#850000
1$
1-
0!
1"
#860000
1!
0#
#870000
0"
#880000
1"
#890000
0$
0-
0!
0"
#900000
1$
1-
1!
1"
1#
#910000
0"
0#
#920000
0!
1"
1#
#930000
1!
0#
#940000
0$
0-
0!
0"
#950000
1"
#960000
0"
1#
#970000
1$
1-
1!
1"
0#
#980000
0$
0-
0"
1#
#990000
1$
1-
0#
