Day1_2X1mux/Test/sim.vcd
$date
	Sat Jun 18 11:13:03 2022
$end
$version
	Icarus Verilog
$end
$timescale
	1ps
$end
$scope module sim $end
$var wire 1 ! a $end
$var wire 1 " b $end
$var wire 1 # sel $end
$var wire 1 $ c $end
$scope module dut $end
$var wire 1 ! a $end
$var wire 1 " b $end
$var wire 1 # sel $end
$var wire 1 $ c $end
$scope module mux2X1_inst $end
$var wire 1 ! a $end
$var wire 1 " b $end
$var wire 1 # sel $end
$var wire 1 $ c $end
$scope module _0_ $end
$var wire 1 ! A0 $end
$var wire 1 " A1 $end
$var wire 1 # S $end
$var wire 1 % VGND $end
$var wire 1 & VNB $end
$var wire 1 ' VPB $end
$var wire 1 ( VPWR $end
$var wire 1 $ X $end
$scope module base $end
$var wire 1 ! A0 $end
$var wire 1 " A1 $end
$var wire 1 # S $end
$var wire 1 ) VGND $end
$var wire 1 * VNB $end
$var wire 1 + VPB $end
$var wire 1 , VPWR $end
$var wire 1 $ X $end
$var wire 1 - mux_2to10_out_X $end
$upscope $end
$upscope $end
$upscope $end
$upscope $end
$upscope $end
$enddefinitions $end
#0
$dumpvars
1-
1,
1+
0*
0)
1(
1'
0&
0%
1$
1#
1"
1!
$end
#10000
0$
0-
0!
0#
#20000
1$
1-
1!
1#
#30000
0"
0#
#40000
0$
0-
1#
#50000
0!
0#
#60000
1!
1#
#70000
0!
#90000
1$
1-
1"
#100000
1!
#110000
0#
#120000
0$
0-
0!
0"
#130000
1$
1-
1!
1"
1#
#150000
0#
#160000
0"
#170000
1"
1#
#180000
0$
0-
0!
0"
#200000
0#
#210000
1#
#220000
1$
1-
1!
1"
0#
#230000
1#
#240000
0$
0-
0"
#260000
1$
1-
0!
1"
#280000
1!
0"
0#
#290000
0$
0-
1#
#300000
0!
0#
#310000
1$
1-
1!
1"
1#
#320000
0#
#330000
1#
#340000
0$
0-
0!
0#
#350000
1$
1-
1!
#360000
0$
0-
0!
0"
1#
#370000
1$
1-
1!
1"
#390000
0#
#400000
0$
0-
0!
#420000
1$
1-
1!
0"
#440000
0!
1"
1#
#450000
0$
0-
1!
0"
#460000
1$
1-
1"
0#
#470000
0$
0-
0!
0"
#480000
1!
1#
#490000
0!
0#
#500000
1$
1-
1!
1"
1#
#520000
0!
#530000
0$
0-
0#
#540000
1$
1-
1!
1#
#550000
0!
#560000
0$
0-
0"
0#
#570000
1!
1#
#580000
0!
#590000
1$
1-
1!
1"
#600000
0"
0#
#610000
0$
0-
1#
#630000
0!
0#
#640000
1$
1-
1!
#660000
1"
#670000
0"
#680000
0$
0-
0!
#690000
1#
#700000
1$
1-
1!
1"
#710000
0$
0-
0!
0"
0#
#720000
1!
1#
#730000
1$
1-
1"
0#
#740000
0$
0-
0"
1#
#750000
1$
1-
1"
0#
#760000
0$
0-
0!
0"
#770000
1$
1-
1!
1"
#780000
0$
0-
0!
#790000
0"
1#
#800000
1"
0#
#810000
1$
1-
1!
0"
#830000
1"
#850000
1#
#860000
0#
#870000
0!
1#
#880000
0$
0-
1!
0"
#890000
0!
0#
#900000
1#
#920000
1$
1-
1"
#930000
0$
0-
0"
0#
#940000
1!
1#
#950000
1$
1-
1"
#970000
0$
0-
0"
#980000
0!
#990000
0#
