Day5_counter/Test/sim.vcd
$date
	Wed Jun 22 19:54:18 2022
$end
$version
	Icarus Verilog
$end
$timescale
	1ps
$end
$scope module sim $end
$var wire 1 ! clk $end
$var wire 1 " rst_n $end
$var wire 4 # count_o [3:0] $end
$scope module dut $end
$var wire 1 ! clk $end
$var wire 1 " rst_n $end
$var wire 4 $ count_o [3:0] $end
$scope module counter_inst $end
$var wire 1 ! clk $end
$var wire 1 " rst_n $end
$var wire 4 % count_o [3:0] $end
$var wire 4 & count_next [3:0] $end
$var wire 1 ' _01_ $end
$var wire 1 ( _00_ $end
$scope module _02_ $end
$var wire 1 ) A $end
$var wire 1 * VGND $end
$var wire 1 + VNB $end
$var wire 1 , VPB $end
$var wire 1 - VPWR $end
$var wire 1 . Y $end
$scope module base $end
$var wire 1 ) A $end
$var wire 1 . Y $end
$var wire 1 / not0_out_Y $end
$upscope $end
$upscope $end
$scope module _03_ $end
$var wire 1 0 A $end
$var wire 1 1 B $end
$var wire 1 2 VGND $end
$var wire 1 3 VNB $end
$var wire 1 4 VPB $end
$var wire 1 5 VPWR $end
$var wire 1 6 X $end
$scope module base $end
$var wire 1 0 A $end
$var wire 1 1 B $end
$var wire 1 6 X $end
$var wire 1 7 xor0_out_X $end
$upscope $end
$upscope $end
$scope module _04_ $end
$var wire 1 8 A $end
$var wire 1 9 B $end
$var wire 1 : C $end
$var wire 1 ; VGND $end
$var wire 1 < VNB $end
$var wire 1 = VPB $end
$var wire 1 > VPWR $end
$var wire 1 ( Y $end
$scope module base $end
$var wire 1 8 A $end
$var wire 1 9 B $end
$var wire 1 : C $end
$var wire 1 ( Y $end
$var wire 1 ? nand0_out_Y $end
$upscope $end
$upscope $end
$scope module _05_ $end
$var wire 1 @ A1 $end
$var wire 1 A A2 $end
$var wire 1 B B1 $end
$var wire 1 C VGND $end
$var wire 1 D VNB $end
$var wire 1 E VPB $end
$var wire 1 F VPWR $end
$var wire 1 ' Y $end
$scope module base $end
$var wire 1 @ A1 $end
$var wire 1 A A2 $end
$var wire 1 B B1 $end
$var wire 1 ' Y $end
$var wire 1 G and0_out $end
$var wire 1 H nor0_out_Y $end
$upscope $end
$upscope $end
$scope module _06_ $end
$var wire 1 ( A $end
$var wire 1 ' SLEEP $end
$var wire 1 I VGND $end
$var wire 1 J VNB $end
$var wire 1 K VPB $end
$var wire 1 L VPWR $end
$var wire 1 M X $end
$scope module base $end
$var wire 1 ( A $end
$var wire 1 ' SLEEP $end
$var wire 1 M X $end
$var wire 1 N and0_out_X $end
$var wire 1 O not0_out $end
$upscope $end
$upscope $end
$scope module _07_ $end
$var wire 1 P A $end
$var wire 1 ( B $end
$var wire 1 Q VGND $end
$var wire 1 R VNB $end
$var wire 1 S VPB $end
$var wire 1 T VPWR $end
$var wire 1 U Y $end
$scope module base $end
$var wire 1 P A $end
$var wire 1 ( B $end
$var wire 1 U Y $end
$var wire 1 V xnor0_out_Y $end
$upscope $end
$upscope $end
$scope module _08_ $end
$var wire 1 ! CLK $end
$var wire 1 W D $end
$var wire 1 " RESET_B $end
$var wire 1 X VGND $end
$var wire 1 Y VNB $end
$var wire 1 Z VPB $end
$var wire 1 [ VPWR $end
$var wire 1 \ Q $end
$scope module base $end
$var wire 1 ! CLK $end
$var wire 1 W D $end
$var wire 1 \ Q $end
$var wire 1 ] RESET $end
$var wire 1 " RESET_B $end
$var wire 1 ^ buf_Q $end
$upscope $end
$upscope $end
$scope module _09_ $end
$var wire 1 ! CLK $end
$var wire 1 _ D $end
$var wire 1 " RESET_B $end
$var wire 1 ` VGND $end
$var wire 1 a VNB $end
$var wire 1 b VPB $end
$var wire 1 c VPWR $end
$var wire 1 d Q $end
$scope module base $end
$var wire 1 ! CLK $end
$var wire 1 _ D $end
$var wire 1 d Q $end
$var wire 1 e RESET $end
$var wire 1 " RESET_B $end
$var wire 1 f buf_Q $end
$upscope $end
$upscope $end
$scope module _10_ $end
$var wire 1 ! CLK $end
$var wire 1 g D $end
$var wire 1 " RESET_B $end
$var wire 1 h VGND $end
$var wire 1 i VNB $end
$var wire 1 j VPB $end
$var wire 1 k VPWR $end
$var wire 1 l Q $end
$scope module base $end
$var wire 1 ! CLK $end
$var wire 1 g D $end
$var wire 1 l Q $end
$var wire 1 m RESET $end
$var wire 1 " RESET_B $end
$var wire 1 n buf_Q $end
$upscope $end
$upscope $end
$scope module _11_ $end
$var wire 1 ! CLK $end
$var wire 1 o D $end
$var wire 1 " RESET_B $end
$var wire 1 p VGND $end
$var wire 1 q VNB $end
$var wire 1 r VPB $end
$var wire 1 s VPWR $end
$var wire 1 t Q $end
$scope module base $end
$var wire 1 ! CLK $end
$var wire 1 o D $end
$var wire 1 t Q $end
$var wire 1 u RESET $end
$var wire 1 " RESET_B $end
$var wire 1 v buf_Q $end
$upscope $end
$upscope $end
$upscope $end
$upscope $end
$upscope $end
$enddefinitions $end
#0
$dumpvars
xv
0u
xt
1s
1r
0q
0p
xo
xn
0m
xl
1k
1j
0i
0h
xg
xf
0e
xd
1c
1b
0a
0`
x_
x^
0]
x\
1[
1Z
0Y
0X
xW
xV
xU
1T
1S
0R
0Q
xP
xO
xN
xM
1L
1K
0J
0I
xH
xG
1F
1E
0D
0C
xB
xA
x@
x?
1>
1=
0<
0;
x:
x9
x8
x7
x6
15
14
03
02
x1
x0
x/
x.
1-
1,
0+
0*
x)
x(
x'
bx &
bx %
bx $
bx #
1"
1!
$end
#5000
0!
#10000
1!
#15000
0g
0M
0N
0o
0O
0U
1W
1'
0_
0V
1.
1H
b1 &
06
1(
1/
0G
07
1?
0A
09
01
0)
0@
08
00
0B
0:
0P
0\
0d
0l
b0 #
b0 $
b0 %
0t
0^
0f
0n
0v
1]
1e
1m
1u
0"
0!
#20000
1!
#25000
0!
#30000
1!
#35000
0]
0e
0m
0u
1"
0!
#40000
1_
0W
16
b10 &
0.
17
0/
1A
19
11
1)
b1 #
b1 $
b1 %
1\
1^
1!
#45000
0!
#50000
1W
b11 &
1.
1/
0A
09
01
0)
1@
18
10
0\
b10 #
b10 $
b10 %
1d
0^
1f
1!
#55000
0!
#60000
1g
1M
1N
1O
0'
0_
0W
0H
06
b100 &
0.
1G
07
0/
1A
19
11
1)
b11 #
b11 $
b11 %
1\
1^
1!
#65000
0!
#70000
1W
b101 &
1.
1/
0G
0A
09
01
0)
0@
08
00
1B
1:
0\
0d
b100 #
b100 $
b100 %
1l
0^
0f
1n
1!
#75000
0!
#80000
1_
0W
16
b110 &
0.
17
0/
1A
19
11
1)
b101 #
b101 $
b101 %
1\
1^
1!
#85000
0!
#90000
1W
b111 &
1.
1/
0A
09
01
0)
1@
18
10
0\
b110 #
b110 $
b110 %
1d
0^
1f
1!
#95000
0!
#100000
0g
1o
0M
1U
0N
1V
0_
0W
0(
06
b1000 &
0.
1G
0?
07
0/
1A
19
11
1)
b111 #
b111 $
b111 %
1\
1^
1!
#105000
0!
#110000
0g
0O
0M
1W
1'
0N
1o
1.
1H
1(
b1001 &
1U
1/
0G
1?
1V
0A
09
01
0)
0@
08
00
0B
0:
1P
0\
0d
0l
b1000 #
b1000 $
b1000 %
1t
0^
0f
0n
1v
1!
#115000
0!
#120000
1_
0W
16
b1010 &
0.
17
0/
1A
19
11
1)
b1001 #
b1001 $
b1001 %
1\
1^
1!
#125000
0!
#130000
1W
b1011 &
1.
1/
0A
09
01
0)
1@
18
10
0\
b1010 #
b1010 $
b1010 %
1d
0^
1f
1!
#135000
0!
#140000
1g
1M
1N
1O
0'
0_
0W
0H
06
b1100 &
0.
1G
07
0/
1A
19
11
1)
b1011 #
b1011 $
b1011 %
1\
1^
1!
#145000
0!
#150000
1W
b1101 &
1.
1/
0G
0A
09
01
0)
0@
08
00
1B
1:
0\
0d
b1100 #
b1100 $
b1100 %
1l
0^
0f
1n
1!
#155000
0!
#160000
1_
0W
16
b1110 &
0.
17
0/
1A
19
11
1)
b1101 #
b1101 $
b1101 %
1\
1^
1!
#165000
0!
#170000
1W
b1111 &
1.
1/
0A
09
01
0)
1@
18
10
0\
b1110 #
b1110 $
b1110 %
1d
0^
1f
1!
#175000
0!
#180000
0g
0o
0M
0U
0N
0V
0_
0W
0(
06
b0 &
0.
1G
0?
07
0/
1A
19
11
1)
b1111 #
b1111 $
b1111 %
1\
1^
1!
#185000
0!
#190000
0g
0O
0M
1W
1'
0N
0o
1.
1H
1(
b1 &
0U
1/
0G
1?
0V
0A
09
01
0)
0@
08
00
0B
0:
0P
0\
0d
0l
b0 #
b0 $
b0 %
0t
0^
0f
0n
0v
1!
#195000
0!
#200000
1_
0W
16
b10 &
0.
17
0/
1A
19
11
1)
b1 #
b1 $
b1 %
1\
1^
1!
#205000
0!
#210000
1W
b11 &
1.
1/
0A
09
01
0)
1@
18
10
0\
b10 #
b10 $
b10 %
1d
0^
1f
1!
#215000
0!
#220000
1g
1M
1N
1O
0'
0_
0W
0H
06
b100 &
0.
1G
07
0/
1A
19
11
1)
b11 #
b11 $
b11 %
1\
1^
1!
#225000
0!
#230000
1W
b101 &
1.
1/
0G
0A
09
01
0)
0@
08
00
1B
1:
0\
0d
b100 #
b100 $
b100 %
1l
0^
0f
1n
1!
#235000
0!
#240000
1_
0W
16
b110 &
0.
17
0/
1A
19
11
1)
b101 #
b101 $
b101 %
1\
1^
1!
#245000
0!
#250000
1W
b111 &
1.
1/
0A
09
01
0)
1@
18
10
0\
b110 #
b110 $
b110 %
1d
0^
1f
1!
#255000
0!
#260000
0g
1o
0M
1U
0N
1V
0_
0W
0(
06
b1000 &
0.
1G
0?
07
0/
1A
19
11
1)
b111 #
b111 $
b111 %
1\
1^
1!
#265000
0!
#270000
0g
0O
0M
1W
1'
0N
1o
1.
1H
1(
b1001 &
1U
1/
0G
1?
1V
0A
09
01
0)
0@
08
00
0B
0:
1P
0\
0d
0l
b1000 #
b1000 $
b1000 %
1t
0^
0f
0n
1v
1!
#275000
0!
#280000
1_
0W
16
b1010 &
0.
17
0/
1A
19
11
1)
b1001 #
b1001 $
b1001 %
1\
1^
1!
#285000
0!
#290000
1W
b1011 &
1.
1/
0A
09
01
0)
1@
18
10
0\
b1010 #
b1010 $
b1010 %
1d
0^
1f
1!
#295000
0!
#300000
1g
1M
1N
1O
0'
0_
0W
0H
06
b1100 &
0.
1G
07
0/
1A
19
11
1)
b1011 #
b1011 $
b1011 %
1\
1^
1!
#305000
0!
#310000
1W
b1101 &
1.
1/
0G
0A
09
01
0)
0@
08
00
1B
1:
0\
0d
b1100 #
b1100 $
b1100 %
1l
0^
0f
1n
1!
#315000
0!
#320000
1_
0W
16
b1110 &
0.
17
0/
1A
19
11
1)
b1101 #
b1101 $
b1101 %
1\
1^
1!
#325000
0!
#330000
1W
b1111 &
1.
1/
0A
09
01
0)
1@
18
10
0\
b1110 #
b1110 $
b1110 %
1d
0^
1f
1!
#335000
0!
#340000
0g
0o
0M
0U
0N
0V
0_
0W
0(
06
b0 &
0.
1G
0?
07
0/
1A
19
11
1)
b1111 #
b1111 $
b1111 %
1\
1^
1!
#345000
0!
#350000
0g
0O
0M
1W
1'
0N
0o
1.
1H
1(
b1 &
0U
1/
0G
1?
0V
0A
09
01
0)
0@
08
00
0B
0:
0P
0\
0d
0l
b0 #
b0 $
b0 %
0t
0^
0f
0n
0v
1!
#355000
0!
#360000
1_
0W
16
b10 &
0.
17
0/
1A
19
11
1)
b1 #
b1 $
b1 %
1\
1^
1!
#365000
0!
#370000
1W
b11 &
1.
1/
0A
09
01
0)
1@
18
10
0\
b10 #
b10 $
b10 %
1d
0^
1f
1!
#375000
0!
#380000
1g
1M
1N
1O
0'
0_
0W
0H
06
b100 &
0.
1G
07
0/
1A
19
11
1)
b11 #
b11 $
b11 %
1\
1^
1!
#385000
0!
#390000
1W
b101 &
1.
1/
0G
0A
09
01
0)
0@
08
00
1B
1:
0\
0d
b100 #
b100 $
b100 %
1l
0^
0f
1n
1!
#395000
0!
#400000
1_
0W
16
b110 &
0.
17
0/
1A
19
11
1)
b101 #
b101 $
b101 %
1\
1^
1!
#405000
0!
#410000
1W
b111 &
1.
1/
0A
09
01
0)
1@
18
10
0\
b110 #
b110 $
b110 %
1d
0^
1f
1!
#415000
0!
#420000
0g
1o
0M
1U
0N
1V
0_
0W
0(
06
b1000 &
0.
1G
0?
07
0/
1A
19
11
1)
b111 #
b111 $
b111 %
1\
1^
1!
#425000
0!
#430000
0g
0O
0M
1W
1'
0N
1o
1.
1H
1(
b1001 &
1U
1/
0G
1?
1V
0A
09
01
0)
0@
08
00
0B
0:
1P
0\
0d
0l
b1000 #
b1000 $
b1000 %
1t
0^
0f
0n
1v
1!
#435000
0!
#440000
1_
0W
16
b1010 &
0.
17
0/
1A
19
11
1)
b1001 #
b1001 $
b1001 %
1\
1^
1!
#445000
0!
#450000
1W
b1011 &
1.
1/
0A
09
01
0)
1@
18
10
0\
b1010 #
b1010 $
b1010 %
1d
0^
1f
1!
#455000
0!
#460000
1g
1M
1N
1O
0'
0_
0W
0H
06
b1100 &
0.
1G
07
0/
1A
19
11
1)
b1011 #
b1011 $
b1011 %
1\
1^
1!
#465000
0!
#470000
1W
b1101 &
1.
1/
0G
0A
09
01
0)
0@
08
00
1B
1:
0\
0d
b1100 #
b1100 $
b1100 %
1l
0^
0f
1n
1!
#475000
0!
#480000
1_
0W
16
b1110 &
0.
17
0/
1A
19
11
1)
b1101 #
b1101 $
b1101 %
1\
1^
1!
#485000
0!
#490000
1W
b1111 &
1.
1/
0A
09
01
0)
1@
18
10
0\
b1110 #
b1110 $
b1110 %
1d
0^
1f
1!
#495000
0!
#500000
0g
0o
0M
0U
0N
0V
0_
0W
0(
06
b0 &
0.
1G
0?
07
0/
1A
19
11
1)
b1111 #
b1111 $
b1111 %
1\
1^
1!
#505000
0!
#510000
0g
0O
0M
1W
1'
0N
0o
1.
1H
1(
b1 &
0U
1/
0G
1?
0V
0A
09
01
0)
0@
08
00
0B
0:
0P
0\
0d
0l
b0 #
b0 $
b0 %
0t
0^
0f
0n
0v
1!
#515000
0!
#520000
1_
0W
16
b10 &
0.
17
0/
1A
19
11
1)
b1 #
b1 $
b1 %
1\
1^
1!
#525000
0!
#530000
1W
b11 &
1.
1/
0A
09
01
0)
1@
18
10
0\
b10 #
b10 $
b10 %
1d
0^
1f
1!
#535000
0!
#540000
1g
1M
1N
1O
0'
0_
0W
0H
06
b100 &
0.
1G
07
0/
1A
19
11
1)
b11 #
b11 $
b11 %
1\
1^
1!
#545000
0!
#550000
1W
b101 &
1.
1/
0G
0A
09
01
0)
0@
08
00
1B
1:
0\
0d
b100 #
b100 $
b100 %
1l
0^
0f
1n
1!
#555000
0!
#560000
1_
0W
16
b110 &
0.
17
0/
1A
19
11
1)
b101 #
b101 $
b101 %
1\
1^
1!
#565000
0!
#570000
1W
b111 &
1.
1/
0A
09
01
0)
1@
18
10
0\
b110 #
b110 $
b110 %
1d
0^
1f
1!
#575000
0!
#580000
0g
1o
0M
1U
0N
1V
0_
0W
0(
06
b1000 &
0.
1G
0?
07
0/
1A
19
11
1)
b111 #
b111 $
b111 %
1\
1^
1!
#585000
0!
#590000
0g
0O
0M
1W
1'
0N
1o
1.
1H
1(
b1001 &
1U
1/
0G
1?
1V
0A
09
01
0)
0@
08
00
0B
0:
1P
0\
0d
0l
b1000 #
b1000 $
b1000 %
1t
0^
0f
0n
1v
1!
#595000
0!
#600000
1_
0W
16
b1010 &
0.
17
0/
1A
19
11
1)
b1001 #
b1001 $
b1001 %
1\
1^
1!
#605000
0!
#610000
1W
b1011 &
1.
1/
0A
09
01
0)
1@
18
10
0\
b1010 #
b1010 $
b1010 %
1d
0^
1f
1!
#615000
0!
#620000
1g
1M
1N
1O
0'
0_
0W
0H
06
b1100 &
0.
1G
07
0/
1A
19
11
1)
b1011 #
b1011 $
b1011 %
1\
1^
1!
#625000
0!
#630000
1W
b1101 &
1.
1/
0G
0A
09
01
0)
0@
08
00
1B
1:
0\
0d
b1100 #
b1100 $
b1100 %
1l
0^
0f
1n
1!
#635000
0!
#640000
1_
0W
16
b1110 &
0.
17
0/
1A
19
11
1)
b1101 #
b1101 $
b1101 %
1\
1^
1!
#645000
0!
#650000
1W
b1111 &
1.
1/
0A
09
01
0)
1@
18
10
0\
b1110 #
b1110 $
b1110 %
1d
0^
1f
1!
#655000
0!
#660000
0g
0o
0M
0U
0N
0V
0_
0W
0(
06
b0 &
0.
1G
0?
07
0/
1A
19
11
1)
b1111 #
b1111 $
b1111 %
1\
1^
1!
#665000
0!
#670000
0g
0O
0M
1W
1'
0N
0o
1.
1H
1(
b1 &
0U
1/
0G
1?
0V
0A
09
01
0)
0@
08
00
0B
0:
0P
0\
0d
0l
b0 #
b0 $
b0 %
0t
0^
0f
0n
0v
1!
#675000
0!
#680000
1_
0W
16
b10 &
0.
17
0/
1A
19
11
1)
b1 #
b1 $
b1 %
1\
1^
1!
#685000
0!
#690000
1W
b11 &
1.
1/
0A
09
01
0)
1@
18
10
0\
b10 #
b10 $
b10 %
1d
0^
1f
1!
#695000
0!
#700000
1g
1M
1N
1O
0'
0_
0W
0H
06
b100 &
0.
1G
07
0/
1A
19
11
1)
b11 #
b11 $
b11 %
1\
1^
1!
#705000
0!
#710000
1W
b101 &
1.
1/
0G
0A
09
01
0)
0@
08
00
1B
1:
0\
0d
b100 #
b100 $
b100 %
1l
0^
0f
1n
1!
#715000
0!
#720000
1_
0W
16
b110 &
0.
17
0/
1A
19
11
1)
b101 #
b101 $
b101 %
1\
1^
1!
#725000
0!
#730000
1W
b111 &
1.
1/
0A
09
01
0)
1@
18
10
0\
b110 #
b110 $
b110 %
1d
0^
1f
1!
#735000
0!
#740000
0g
1o
0M
1U
0N
1V
0_
0W
0(
06
b1000 &
0.
1G
0?
07
0/
1A
19
11
1)
b111 #
b111 $
b111 %
1\
1^
1!
#745000
0!
#750000
0g
0O
0M
1W
1'
0N
1o
1.
1H
1(
b1001 &
1U
1/
0G
1?
1V
0A
09
01
0)
0@
08
00
0B
0:
1P
0\
0d
0l
b1000 #
b1000 $
b1000 %
1t
0^
0f
0n
1v
1!
#755000
0!
#760000
1_
0W
16
b1010 &
0.
17
0/
1A
19
11
1)
b1001 #
b1001 $
b1001 %
1\
1^
1!
#765000
0!
#770000
1W
b1011 &
1.
1/
0A
09
01
0)
1@
18
10
0\
b1010 #
b1010 $
b1010 %
1d
0^
1f
1!
#775000
0!
#780000
1g
1M
1N
1O
0'
0_
0W
0H
06
b1100 &
0.
1G
07
0/
1A
19
11
1)
b1011 #
b1011 $
b1011 %
1\
1^
1!
#785000
0!
#790000
1W
b1101 &
1.
1/
0G
0A
09
01
0)
0@
08
00
1B
1:
0\
0d
b1100 #
b1100 $
b1100 %
1l
0^
0f
1n
1!
#795000
0!
#800000
1_
0W
16
b1110 &
0.
17
0/
1A
19
11
1)
b1101 #
b1101 $
b1101 %
1\
1^
1!
#805000
0!
#810000
1W
b1111 &
1.
1/
0A
09
01
0)
1@
18
10
0\
b1110 #
b1110 $
b1110 %
1d
0^
1f
1!
#815000
0!
#820000
0g
0o
0M
0U
0N
0V
0_
0W
0(
06
b0 &
0.
1G
0?
07
0/
1A
19
11
1)
b1111 #
b1111 $
b1111 %
1\
1^
1!
#825000
0!
#830000
0g
0O
0M
1W
1'
0N
0o
1.
1H
1(
b1 &
0U
1/
0G
1?
0V
0A
09
01
0)
0@
08
00
0B
0:
0P
0\
0d
0l
b0 #
b0 $
b0 %
0t
0^
0f
0n
0v
1!
#835000
0!
#840000
1_
0W
16
b10 &
0.
17
0/
1A
19
11
1)
b1 #
b1 $
b1 %
1\
1^
1!
#845000
0!
#850000
1W
b11 &
1.
1/
0A
09
01
0)
1@
18
10
0\
b10 #
b10 $
b10 %
1d
0^
1f
1!
#855000
0!
#860000
1g
1M
1N
1O
0'
0_
0W
0H
06
b100 &
0.
1G
07
0/
1A
19
11
1)
b11 #
b11 $
b11 %
1\
1^
1!
#865000
0!
#870000
1W
b101 &
1.
1/
0G
0A
09
01
0)
0@
08
00
1B
1:
0\
0d
b100 #
b100 $
b100 %
1l
0^
0f
1n
1!
#875000
0!
#880000
1_
0W
16
b110 &
0.
17
0/
1A
19
11
1)
b101 #
b101 $
b101 %
1\
1^
1!
#885000
0!
#890000
1W
b111 &
1.
1/
0A
09
01
0)
1@
18
10
0\
b110 #
b110 $
b110 %
1d
0^
1f
1!
#895000
0!
#900000
0g
1o
0M
1U
0N
1V
0_
0W
0(
06
b1000 &
0.
1G
0?
07
0/
1A
19
11
1)
b111 #
b111 $
b111 %
1\
1^
1!
#905000
0!
#910000
0g
0O
0M
1W
1'
0N
1o
1.
1H
1(
b1001 &
1U
1/
0G
1?
1V
0A
09
01
0)
0@
08
00
0B
0:
1P
0\
0d
0l
b1000 #
b1000 $
b1000 %
1t
0^
0f
0n
1v
1!
#915000
0!
#920000
1_
0W
16
b1010 &
0.
17
0/
1A
19
11
1)
b1001 #
b1001 $
b1001 %
1\
1^
1!
#925000
0!
#930000
1W
b1011 &
1.
1/
0A
09
01
0)
1@
18
10
0\
b1010 #
b1010 $
b1010 %
1d
0^
1f
1!
#935000
0!
#940000
1g
1M
1N
1O
0'
0_
0W
0H
06
b1100 &
0.
1G
07
0/
1A
19
11
1)
b1011 #
b1011 $
b1011 %
1\
1^
1!
#945000
0!
#950000
1W
b1101 &
1.
1/
0G
0A
09
01
0)
0@
08
00
1B
1:
0\
0d
b1100 #
b1100 $
b1100 %
1l
0^
0f
1n
1!
#955000
0!
#960000
1_
0W
16
b1110 &
0.
17
0/
1A
19
11
1)
b1101 #
b1101 $
b1101 %
1\
1^
1!
#965000
0!
#970000
1W
b1111 &
1.
1/
0A
09
01
0)
1@
18
10
0\
b1110 #
b1110 $
b1110 %
1d
0^
1f
1!
#975000
0!
#980000
0g
0o
0M
0U
0N
0V
0_
0W
0(
06
b0 &
0.
1G
0?
07
0/
1A
19
11
1)
b1111 #
b1111 $
b1111 %
1\
1^
1!
#985000
0!
#990000
0g
0O
0M
1W
1'
0N
0o
1.
1H
1(
b1 &
0U
1/
0G
1?
0V
0A
09
01
0)
0@
08
00
0B
0:
0P
0\
0d
0l
b0 #
b0 $
b0 %
0t
0^
0f
0n
0v
1!
#995000
0!
#1000000
1_
0W
16
b10 &
0.
17
0/
1A
19
11
1)
b1 #
b1 $
b1 %
1\
1^
1!
#1005000
0!
#1010000
1W
b11 &
1.
1/
0A
09
01
0)
1@
18
10
0\
b10 #
b10 $
b10 %
1d
0^
1f
1!
#1015000
0!
#1020000
1g
1M
1N
1O
0'
0_
0W
0H
06
b100 &
0.
1G
07
0/
1A
19
11
1)
b11 #
b11 $
b11 %
1\
1^
1!
#1025000
0!
#1030000
1W
b101 &
1.
1/
0G
0A
09
01
0)
0@
08
00
1B
1:
0\
0d
b100 #
b100 $
b100 %
1l
0^
0f
1n
1!
